Producing Tabular Summaries for DEQ Lake Datasets
…
8/5/2024
21VASWCB-5ANTW127.14
2.0
Specific conductance
77
uS/cm

The second table, seen below, shows the final table of results for this data. This table visualizes more specific parameters by their mean values per sampling date (one per month). Here, we are able to view simple relationships that may exist between parameters. The presentation of data in this format provides easier access to data for further manipulation and analysis of factors contributing to algae blooms, water clarity, and more.

# A tibble: 211 × 42
   OrganizationIdentifier OrganizationFormalName              ActivityIdentifier
   <chr>                  <chr>                               <chr>             
 1 21VASWCB               VIRGINIA DEPARTMENT OF ENVIRONMENT… 21VASWCB-3132329.1
 2 21VASWCB               VIRGINIA DEPARTMENT OF ENVIRONMENT… 21VASWCB-3130078.…
 3 21VASWCB               VIRGINIA DEPARTMENT OF ENVIRONMENT… 21VASWCB-3132332.…
 4 21VASWCB               VIRGINIA DEPARTMENT OF ENVIRONMENT… 21VASWCB-3130079.…
 5 21VASWCB               VIRGINIA DEPARTMENT OF ENVIRONMENT… 21VASWCB-3130077.…
 6 21VASWCB               VIRGINIA DEPARTMENT OF ENVIRONMENT… 21VASWCB-3126435.2
 7 21VASWCB               VIRGINIA DEPARTMENT OF ENVIRONMENT… 21VASWCB-3132329.3
 8 21VASWCB               VIRGINIA DEPARTMENT OF ENVIRONMENT… 21VASWCB-3132330.…
 9 21VASWCB               VIRGINIA DEPARTMENT OF ENVIRONMENT… 21VASWCB-3132329.2
10 21VASWCB               VIRGINIA DEPARTMENT OF ENVIRONMENT… 21VASWCB-3132331.…
# ℹ 201 more rows
# ℹ 39 more variables: ActivityTypeCode <chr>,
#   ActivityMediaSubdivisionName <chr>, ActivityStartDate <chr>,
#   `ActivityDepthHeightMeasure/MeasureValue` <dbl>,
#   `ActivityDepthHeightMeasure/MeasureUnitCode` <chr>,
#   ProjectIdentifier <chr>, ProjectName <chr>,
#   ActivityConductingOrganizationText <chr>, …
…
